{
  "name": "Blacklist Account By Phone Number",
  "integrationType": "salesforce-datadip",
  "actionType": "custom",
  "config": {
    "request": {
      "requestUrlTemplate": "/services/data/v37.0/search/?q=$esc.url(\"FIND {$salesforce.escReserved(${input.PHONE_NUMBER}))} IN PHONE FIELDS RETURNING Contact(AccountId)\")",
      "requestType": "GET",
      "headers": {
        "UserAgent": "PureCloudIntegrations/1.0"
      },
      "requestTemplate": "${input.rawRequest}"
    },
    "response": {
      "translationMap": {
        "contact": "$.searchRecords"
      },
      "translationMapDefaults": {},
      "successTemplate": "${contact}"
    }
  },
  "contract": {
    "input": {
      "inputSchema": {
        "$schema": "http://json-schema.org/draft-04/schema#",
        "title": "Phone Number Request",
        "description": "A phone number-based request.",
        "type": "object",
        "required": [
          "PHONE_NUMBER"
        ],
        "properties": {
          "PHONE_NUMBER": {
            "type": "string",
            "description": "The phone number used for the query."
          }
        }
      }
    },
    "output": {
      "successSchema": {
        "$schema": "http://json-schema.org/draft-04/schema#",
        "type": "array",
        "properties": {},
        "items": {
          "$schema": "http://json-schema.org/draft-04/schema#",
          "title": "Contact",
          "type": "object",
          "description": "A  Salesforce contact.",
          "properties": {
            "AccountId": {
              "type": "string",
              "description": "Account ID."
            }
          }
        }
      }
    }
  },
  "secure": false
}