{
  "name": "Get Account By Account Number (Include type)",
  "integrationType": "salesforce-datadip",
  "actionType": "custom",
  "config": {
    "request": {
      "requestUrlTemplate": "/services/data/v37.0/query/?q=$esc.url(\"SELECT AccountNumber, AccountSource, AnnualRevenue, BillingAddress, BillingCity, BillingCountry, BillingPostalCode, BillingState, BillingStreet, Description, Fax, Id, Industry, IsDeleted, Name, OwnerId, Ownership, ParentId, Phone, Rating, ShippingAddress, ShippingCity, ShippingCountry, ShippingPostalCode, ShippingState, ShippingStreet, Site, TickerSymbol, Type, Website FROM Account WHERE AccountNumber = '$salesforce.escReserved(${input.ACCOUNT_NUMBER})'\")",
      "requestType": "GET",
      "headers": {
        "UserAgent": "PureCloudIntegrations/1.0"
      },
      "requestTemplate": "${input.rawRequest}"
    },
    "response": {
      "translationMap": {
        "account": "$.records"
      },
      "successTemplate": "${account}"
    }
  },
  "contract": {
    "input": {
      "inputSchema": {
        "$schema": "http://json-schema.org/draft-04/schema#",
        "title": "Account Number Request",
        "description": "An account number-based request.",
        "type": "object",
        "required": [
          "ACCOUNT_NUMBER"
        ],
        "properties": {
          "ACCOUNT_NUMBER": {
            "description": "The account number used to query Salesforce.",
            "type": "string"
          }
        }
      }
    },
    "output": {
      "successSchema": {
        "$schema": "http://json-schema.org/draft-04/schema#",
        "type": "array",
        "properties": {},
        "items": {
          "$schema": "http://json-schema.org/draft-04/schema#",
          "title": "Account",
          "type": "object",
          "description": "A Salesforce account.",
          "required": [
            "Id"
          ],
          "properties": {
            "Id": {
              "type": "string",
              "description": "The ID of the account."
            },
            "Name": {
              "type": "string",
              "description": "The name of the account."
            },
            "AccountNumber": {
              "type": "string",
              "description": "The account number."
            },
            "AccountType": {
              "type": "string",
              "description": "The account type."
            },
            "Phone": {
              "type": "string",
              "description": "The phone number associated with the account."
            },
            "BillingStreet": {
              "type": "string",
              "description": "The billing street address."
            },
            "BillingCity": {
              "type": "string",
              "description": "The billing city."
            },
            "BillingState": {
              "type": "string",
              "description": "The billing state."
            },
            "BillingPostalCode": {
              "type": "string",
              "description": "The billing postal code."
            },
            "BillingCountry": {
              "type": "string",
              "description": "The billing country."
            },
            "ShippingStreet": {
              "type": "string",
              "description": "The shipping street address."
            },
            "ShippingCity": {
              "type": "string",
              "description": "The shipping city."
            },
            "ShippingState": {
              "type": "string",
              "description": "The shipping state."
            },
            "ShippingPostalCode": {
              "type": "string",
              "description": "The shipping postal code."
            },
            "ShippingCountry": {
              "type": "string",
              "description": "The shipping country."
            }
          }
        }
      }
    }
  },
  "secure": false
}